{
    "/js/backend-konfirmasi.js": "/js/backend-konfirmasi.js",
    "/js/backend-registrasi.js": "/js/backend-registrasi.js",
    "/js/konfirmasi.js": "/js/konfirmasi.js",
    "/js/manifest.js": "/js/manifest.js",
    "/js/registrasi.js": "/js/registrasi.js",
    "/js/sertifikasi.js": "/js/sertifikasi.js",
    "/js/vendor.js": "/js/vendor.js"
}
